An R package for metabarcoding research
…
The resulting object contains sequence information associated with an inferred taxonomic hierarchy. The standard print method of the object shows a part of every kind of data it contains:

data

## `taxmap` object with data for 2794 taxa and 10650 observations:
## 
## ---------------------------- taxa ----------------------------
## 1, 2, 3, 4, 5 ... 2789, 2790, 2791, 2792, 2793, 2794
## 
## ------------------------- taxon_data -------------------------
## # A tibble: 2,794 x 3
##   taxon_ids supertaxon_ids            name
##       <chr>          <chr>           <chr>
## 1         1           <NA>            Root
## 2         2              1         Archaea
## 3         3              1        Bacteria
## 4         4              2 "Crenarchaeota"
## 5         5              2 "Euryarchaeota"
## 6         6              2  "Korarchaeota"
## 7         7              2 "Nanoarchaeota"
## # ... with 2,787 more rows
## 
## -------------------------- obs_data --------------------------
…
Note the taxon_funcs part contains function names (e.g. n_obs) used to calculate taxon statistics. You can see the results of these calculations using the taxon_data function:

taxon_data(data)

## # A tibble: 2,794 x 9
##    taxon_ids supertaxon_ids              name n_obs n_obs_1 n_supertaxa
##        <chr>          <chr>             <chr> <dbl>   <dbl>       <dbl>
## 1          1           <NA>              Root 10650       0           0
## 2          2              1           Archaea   410       0           1
## 3          3              1          Bacteria 10240       0           1
## 4          4              2   "Crenarchaeota"    55       0           2
## 5          5              2   "Euryarchaeota"   335       0           2
## 6          6              2    "Korarchaeota"    10      10           2
## 7          7              2   "Nanoarchaeota"     3       3           2
## 8          8              2 Nanohaloarchaeota     1       0           2
## 9          9              2  "Thaumarchaeota"     6       0           2
## 10        10              4      Thermoprotei    55       0           3
## # ... with 2,784 more rows, and 3 more variables: n_subtaxa <dbl>,
## #   n_subtaxa_1 <dbl>, hierarchies <chr>
…
In silico PCR

The function primersearch is a wrapper for an EMBOSS tool that implements in silico PCR. The code below estimates the coverage of the universal prokaryotic primer pair 515F/806R (Walters Hyde, et al., 2015):

pcr <- primersearch(sampled, 
                    forward = c("515F" = "GTGYCAGCMGCCGCGGTAA"), 
                    reverse = c("806R" = "GGACTACNVGGGTWTCTAAT"), 
                    mismatch = 10)
taxon_data(pcr)

## # A tibble: 1,999 x 11
##    taxon_ids supertaxon_ids              name n_obs n_obs_1 n_supertaxa
##        <chr>          <chr>             <chr> <dbl>   <dbl>       <dbl>
## 1          2           <NA>           Archaea   362       0           0
## 2          3           <NA>          Bacteria  4569       0           0
## 3          4              2   "Crenarchaeota"    55       0           1
## 4          5              2   "Euryarchaeota"   287       0           1
## 5          6              2    "Korarchaeota"    10      10           1
## 6          7              2   "Nanoarchaeota"     3       3           1
## 7          8              2 Nanohaloarchaeota     1       0           1
## 8          9              2  "Thaumarchaeota"     6       0           1
## 9         10              4      Thermoprotei    55       0           2
## 10        11             10      Acidilobales     3       0           3
## # ... with 1,989 more rows, and 5 more variables: n_subtaxa <dbl>,
## #   n_subtaxa_1 <dbl>, hierarchies <chr>, count_amplified <dbl>,
## #   prop_amplified <dbl>
…
