Graphing the Greengenes database
…
##    user  system elapsed 
## 412.917   0.512 414.177

# Remove data for ranks with no information
greengenes <- filter_taxa(greengenes, name != "")
print(greengenes)

## `taxmap` object with data for 3093 taxa and 1262986 observations:
## 
## ----------------------------------------- taxa -----------------------------------------
## 1, 2, 4, 5, 6, 7, 14, 15 ... 7334, 7335, 7339, 7340, 7341, 7342, 7355, 7363, 7364
## 
## -------------------------------------- taxon_data --------------------------------------
## # A tibble: 3,093 x 4
##   taxon_ids supertaxon_ids  rank            name
##       <chr>          <chr> <chr>           <chr>
## 1         1           <NA>     k         Archaea
## 2         2           <NA>     k        Bacteria
## 3         4              1     p   Crenarchaeota
## 4         5              1     p   Euryarchaeota
## 5         6              1     p   Nanoarchaeota
## 6         7              1     p [Parvarchaeota]
## 7        14              4     c             AAG
## # ... with 3,086 more rows
## 
## --------------------------------------- obs_data ---------------------------------------
…
##    user  system elapsed 
##   0.395   0.000   0.396

print(greengenes)

## `taxmap` object with data for 1138 taxa and 1242330 observations:
## 
## ----------------------------------------- taxa -----------------------------------------
## 2, 553, 644, 645, 646, 647, 554 ... 7334, 7335, 7329, 7355, 637, 7363, 7364
## 
## -------------------------------------- taxon_data --------------------------------------
## # A tibble: 1,138 x 4
##   taxon_ids supertaxon_ids  rank          name
##       <chr>          <chr> <chr>         <chr>
## 1         2           <NA>     k      Bacteria
## 2       553              2     p           AC1
## 3       644            553     c       B04R032
## 4       645            553     c     HDBW-WB69
## 5       646            553     c       SHA-114
## 6       647            553     c          TA06
## 7       554              2     p Acidobacteria
## # ... with 1,131 more rows
## 
## --------------------------------------- obs_data ---------------------------------------
…
system.time(greengenes <- filter_taxa(greengenes, name == "Chloroplast", subtaxa = TRUE, invert = TRUE))

##    user  system elapsed 
##   0.189   0.000   0.189

print(greengenes)

## `taxmap` object with data for 1121 taxa and 1242330 observations:
## 
## ----------------------------------------- taxa -----------------------------------------
## 2, 553, 644, 645, 646, 647, 554 ... 7334, 7335, 7329, 7355, 637, 7363, 7364
## 
## -------------------------------------- taxon_data --------------------------------------
## # A tibble: 1,121 x 4
##   taxon_ids supertaxon_ids  rank          name
##       <chr>          <chr> <chr>         <chr>
## 1         2           <NA>     k      Bacteria
## 2       553              2     p           AC1
## 3       644            553     c       B04R032
## 4       645            553     c     HDBW-WB69
## 5       646            553     c       SHA-114
## 6       647            553     c          TA06
## 7       554              2     p Acidobacteria
## # ... with 1,114 more rows
## 
## --------------------------------------- obs_data ---------------------------------------
…
##    user  system elapsed 
##   4.747   0.240   4.995

print(greengenes)

## `taxmap` object with data for 1121 taxa and 1242309 observations:
## 
## ----------------------------------------- taxa -----------------------------------------
## 2, 553, 644, 645, 646, 647, 554 ... 7334, 7335, 7329, 7355, 637, 7363, 7364
## 
## -------------------------------------- taxon_data --------------------------------------
## # A tibble: 1,121 x 4
##   taxon_ids supertaxon_ids  rank          name
##       <chr>          <chr> <chr>         <chr>
## 1         2           <NA>     k      Bacteria
## 2       553              2     p           AC1
## 3       644            553     c       B04R032
## 4       645            553     c     HDBW-WB69
## 5       646            553     c       SHA-114
## 6       647            553     c          TA06
## 7       554              2     p Acidobacteria
## # ... with 1,114 more rows
## 
## --------------------------------------- obs_data ---------------------------------------
…
