Graphing the SILVA database
…
##    user  system elapsed 
##  26.958   0.036  27.032

print(silva)

## `taxmap` object with data for 5006 taxa and 513121 observations:
## 
## ----------------------------------------- taxa -----------------------------------------
## 2, 3423, 3491, 3492, 3493 ... 104672, 104673, 104674, 104675, 104676, 104677
## 
## -------------------------------------- taxon_data --------------------------------------
## # A tibble: 5,006 x 3
##   taxon_ids supertaxon_ids                                          name
##       <chr>          <chr>                                         <chr>
## 1         2           <NA>                                      Bacteria
## 2      3423              2                                  Acetothermia
## 3      3491           3423                     bacterium SCGC AAA255-C06
## 4      3492           3423                                   clone OPB14
## 5      3493           3423   bacterium enrichment culture clone 73(2013)
## 6      3494           3423 bacterium enrichment culture clone AOM-SR-B11
## 7      3495           3423                   hypersaline lake metagenome
## # ... with 4,999 more rows
## 
## --------------------------------------- obs_data ---------------------------------------
…
system.time(silva <- filter_taxa(silva, name == "Chloroplast", subtaxa = TRUE, invert = TRUE))

##    user  system elapsed 
##   0.273   0.000   0.273

print(silva)

## `taxmap` object with data for 3843 taxa and 513121 observations:
## 
## ----------------------------------------- taxa -----------------------------------------
## 2, 3423, 3491, 3492, 3493 ... 104672, 104673, 104674, 104675, 104676, 104677
## 
## -------------------------------------- taxon_data --------------------------------------
## # A tibble: 3,843 x 3
##   taxon_ids supertaxon_ids                                          name
##       <chr>          <chr>                                         <chr>
## 1         2           <NA>                                      Bacteria
## 2      3423              2                                  Acetothermia
## 3      3491           3423                     bacterium SCGC AAA255-C06
## 4      3492           3423                                   clone OPB14
## 5      3493           3423   bacterium enrichment culture clone 73(2013)
## 6      3494           3423 bacterium enrichment culture clone AOM-SR-B11
## 7      3495           3423                   hypersaline lake metagenome
## # ... with 3,836 more rows
## 
## --------------------------------------- obs_data ---------------------------------------
…
##    user  system elapsed 
##   2.351   0.004   2.379

print(silva)

## `taxmap` object with data for 3842 taxa and 513120 observations:
## 
## ----------------------------------------- taxa -----------------------------------------
## 2, 3423, 3491, 3492, 3493 ... 104672, 104673, 104674, 104675, 104676, 104677
## 
## -------------------------------------- taxon_data --------------------------------------
## # A tibble: 3,842 x 3
##   taxon_ids supertaxon_ids                                          name
##       <chr>          <chr>                                         <chr>
## 1         2           <NA>                                      Bacteria
## 2      3423              2                                  Acetothermia
## 3      3491           3423                     bacterium SCGC AAA255-C06
## 4      3492           3423                                   clone OPB14
## 5      3493           3423   bacterium enrichment culture clone 73(2013)
## 6      3494           3423 bacterium enrichment culture clone AOM-SR-B11
## 7      3495           3423                   hypersaline lake metagenome
## # ... with 3,835 more rows
## 
## --------------------------------------- obs_data ---------------------------------------
…
