Graphing the RDP database
…
##     user   system  elapsed 
## 1219.114    3.495 1224.577

print(rdp)

## `taxmap` object with data for 2614 taxa and 3070243 observations:
## 
## ----------------------------------------- taxa -----------------------------------------
## 1, 2, 3, 4, 5, 6, 7, 8 ... 2606, 2607, 2608, 2609, 2610, 2611, 2612, 2613, 2614
## 
## -------------------------------------- taxon_data --------------------------------------
## # A tibble: 2,614 x 4
##   taxon_ids supertaxon_ids             name rdp_rank
##       <chr>          <chr>            <chr>    <chr>
## 1         1           <NA>             Root        r
## 2         2              1         Bacteria        d
## 3         3              2     Acetothermia        p
## 4         4              2  "Acidobacteria"        p
## 5         5              2 "Actinobacteria"        p
## 6         6              2    Aminicenantes        p
## 7         7              2      "Aquificae"        p
## # ... with 2,607 more rows
## 
## --------------------------------------- obs_data ---------------------------------------
…
##    user  system elapsed 
##   0.545   0.000   0.546

print(rdp)

## `taxmap` object with data for 667 taxa and 3070243 observations:
## 
## ----------------------------------------- taxa -----------------------------------------
## 2, 3, 52, 4, 53, 79, 80, 81 ... 2586, 2601, 2587, 2602, 2588, 2603, 2604, 2605
## 
## -------------------------------------- taxon_data --------------------------------------
## # A tibble: 667 x 4
##   taxon_ids supertaxon_ids                  name rdp_rank
##       <chr>          <chr>                 <chr>    <chr>
## 1         2           <NA>              Bacteria        d
## 2         3              2          Acetothermia        p
## 3        52              3 genera_incertae_sedis        g
## 4         4              2       "Acidobacteria"        p
## 5        53              4     Acidobacteria_Gp1        c
## 6        79             53            Acidicapsa        g
## 7        80             53             Acidipila        g
## # ... with 660 more rows
## 
## --------------------------------------- obs_data ---------------------------------------
…
system.time(rdp <- filter_taxa(rdp, name == "Cyanobacteria/Chloroplast", subtaxa = TRUE, invert = TRUE))

##    user  system elapsed 
##   0.249   0.004   0.253

print(rdp)

## `taxmap` object with data for 629 taxa and 3070243 observations:
## 
## ----------------------------------------- taxa -----------------------------------------
## 2, 3, 52, 4, 53, 79, 80, 81 ... 2586, 2601, 2587, 2602, 2588, 2603, 2604, 2605
## 
## -------------------------------------- taxon_data --------------------------------------
## # A tibble: 629 x 4
##   taxon_ids supertaxon_ids                  name rdp_rank
##       <chr>          <chr>                 <chr>    <chr>
## 1         2           <NA>              Bacteria        d
## 2         3              2          Acetothermia        p
## 3        52              3 genera_incertae_sedis        g
## 4         4              2       "Acidobacteria"        p
## 5        53              4     Acidobacteria_Gp1        c
## 6        79             53            Acidicapsa        g
## 7        80             53             Acidipila        g
## # ... with 622 more rows
## 
## --------------------------------------- obs_data ---------------------------------------
…
##    user  system elapsed 
##   6.408   0.000   6.425

print(rdp)

## `taxmap` object with data for 619 taxa and 1516302 observations:
## 
## ----------------------------------------- taxa -----------------------------------------
## 2, 3, 52, 4, 53, 79, 80, 81 ... 2586, 2601, 2587, 2602, 2588, 2603, 2604, 2605
## 
## -------------------------------------- taxon_data --------------------------------------
## # A tibble: 619 x 4
##   taxon_ids supertaxon_ids                  name rdp_rank
##       <chr>          <chr>                 <chr>    <chr>
## 1         2           <NA>              Bacteria        d
## 2         3              2          Acetothermia        p
## 3        52              3 genera_incertae_sedis        g
## 4         4              2       "Acidobacteria"        p
## 5        53              4     Acidobacteria_Gp1        c
## 6        79             53            Acidicapsa        g
## 7        80             53             Acidipila        g
## # ... with 612 more rows
## 
## --------------------------------------- obs_data ---------------------------------------
…
