Digital PCR with the SILVA database
…
##       1 afrh     AY2301… Bacteria;Proteobact… AY230195.1.1496 Bac… UGUUUGAUCCUGGCUCAGAUU…
##       2 afri     AY2307… Bacteria;Firmicutes… AY230764.1.1512 Bac… UGAUCCUGGCUCAGGACGAAC…
##       3 afrj     AY2308… Bacteria;Proteobact… AY230816.1.1447 Bac… AGCGAACGCUGGCGGCAUGCU…
##       # ... with 5.131e+05 more rows
##     amplicons:
##       # A tibble: 491,469 x 14
##         taxon_id seq_index f_primer r_primer f_mismatch r_mismatch f_start f_end r_start
##         <chr>        <dbl> <chr>    <chr>         <dbl>      <dbl>   <dbl> <dbl>   <dbl>
##       1 afrh             1 GTGYCAG… GGACTAC…          0          0     499   517     771
##       2 afri             2 GTGYCAG… GGACTAC…          0          0     512   530     783
##       3 afrj             3 GTGYCAG… GGACTAC…          0          0     433   451     705
##       # ... with 4.915e+05 more rows, and 5 more variables: r_end <dbl>, f_match <chr>,
##       #   r_match <chr>, amplicon <chr>, product <chr>
##     tax_amp_stats:
##       # A tibble: 3,842 x 13
##         taxon_id query_count seq_count amp_count amplified multiple prop_amplified
##         <chr>          <dbl>     <dbl>     <dbl> <lgl>     <lgl>             <dbl>
##       1 aaac          513120    491346    491469 TRUE      TRUE              0.958
##       2 aaah          200083    193537    193601 TRUE      TRUE              0.967
##       3 aaai          138517    132344    132369 TRUE      TRUE              0.955
##       # ... with 3,839 more rows, and 6 more variables: med_amp_len <dbl>,
##       #   min_amp_len <dbl>, max_amp_len <dbl>, med_prod_len <dbl>, min_prod_len <dbl>,
##       #   max_prod_len <dbl>
…
