Graphing voting geography
…
## Parsed with column specification:
## cols(
##   state = col_character(),
##   state_abbreviation = col_character(),
##   county = col_character(),
##   fips = col_double(),
##   party = col_character(),
##   candidate = col_character(),
##   votes = col_double(),
##   fraction_votes = col_double()
## )

print(data)

## # A tibble: 24,611 x 8
##    state   state_abbreviation county   fips party    candidate       votes fraction_votes
##    <chr>   <chr>              <chr>   <dbl> <chr>    <chr>           <dbl>          <dbl>
##  1 Alabama AL                 Autauga 1001. Democrat Bernie Sanders   544.         0.182 
##  2 Alabama AL                 Autauga 1001. Democrat Hillary Clinton 2387.         0.800 
##  3 Alabama AL                 Baldwin 1003. Democrat Bernie Sanders  2694.         0.329 
##  4 Alabama AL                 Baldwin 1003. Democrat Hillary Clinton 5290.         0.647 
##  5 Alabama AL                 Barbour 1005. Democrat Bernie Sanders   222.         0.0780
##  6 Alabama AL                 Barbour 1005. Democrat Hillary Clinton 2567.         0.906 
##  7 Alabama AL                 Bibb    1007. Democrat Bernie Sanders   246.         0.197 
##  8 Alabama AL                 Bibb    1007. Democrat Hillary Clinton  942.         0.755 
##  9 Alabama AL                 Blount  1009. Democrat Bernie Sanders   395.         0.386 
## 10 Alabama AL                 Blount  1009. Democrat Hillary Clinton  564.         0.551 
## # ... with 24,601 more rows
…
regions <- stack(list("Northeast" = c("New England", "Mid-Atlantic"),
                      "Midwest" = c("NE Central", "NW Central"),
                      "South" = c("South Atlantic", "SE Central", "SW Central"),
                      "West" = c("Mountain", "Pacific")))
data$region <- as.character(regions$ind[match(data$division, regions$values)])

data$country <- "USA"

print(data)

## # A tibble: 24,611 x 11
##    state state_abbreviat… county  fips party candidate votes fraction_votes division region country
##    <chr> <chr>            <chr>  <dbl> <chr> <chr>     <dbl>          <dbl> <chr>    <chr>  <chr>  
##  1 Alab… AL               Autau… 1001. Demo… Bernie S…  544.         0.182  SE Cent… South  USA    
##  2 Alab… AL               Autau… 1001. Demo… Hillary … 2387.         0.800  SE Cent… South  USA    
##  3 Alab… AL               Baldw… 1003. Demo… Bernie S… 2694.         0.329  SE Cent… South  USA    
##  4 Alab… AL               Baldw… 1003. Demo… Hillary … 5290.         0.647  SE Cent… South  USA    
##  5 Alab… AL               Barbo… 1005. Demo… Bernie S…  222.         0.0780 SE Cent… South  USA    
##  6 Alab… AL               Barbo… 1005. Demo… Hillary … 2567.         0.906  SE Cent… South  USA    
##  7 Alab… AL               Bibb   1007. Demo… Bernie S…  246.         0.197  SE Cent… South  USA    
##  8 Alab… AL               Bibb   1007. Demo… Hillary …  942.         0.755  SE Cent… South  USA    
##  9 Alab… AL               Blount 1009. Demo… Bernie S…  395.         0.386  SE Cent… South  USA    
## 10 Alab… AL               Blount 1009. Demo… Hillary …  564.         0.551  SE Cent… South  USA    
## # ... with 24,601 more rows
…
