cookbook--reading_common_formats.utf8
…
> DT::datatable(taxa)

> seq_table = seqtab.nochim
> tax_table = taxa
> parse_dada2(seq_table, tax_table)

The following 216 of 232 (93.1%) input indexes have `NA` in their classifications:
   1, 2, 3, 4, 6, 7, 8, 9, 10, 11 ... 223, 224, 225, 226, 227, 228, 229, 230, 231, 232

<Taxmap>
  140 taxa: ab. Bacteria, ac. Bacteroidetes ... hs. muciniphila, hx. danieliae
  140 edges: NA->ab, ab->ac, ab->ad, ab->ae, ab->af ... es->he, dt->hi, fe->hs, eh->hx
  1 data sets:
    asv_table:
      # A tibble: 232 x 22
        taxon_id asv_id  F3D0 F3D141 F3D142 F3D143 F3D144 F3D145 F3D146 F3D147 F3D148
        <chr>    <chr>  <int>  <int>  <int>  <int>  <int>  <int>  <int>  <int>  <int>
      1 bu       TACGG…   579    444    289    228    421    645    325   1495    863
      2 bu       TACGG…   345    362    304    176    277    489    230   1215    729
      3 bu       TACGG…   449    345    158    204    302    522    254    913    581
      # … with 229 more rows, and 11 more variables: F3D149 <int>, F3D150 <int>,
      #   F3D1 <int>, F3D2 <int>, F3D3 <int>, F3D5 <int>, F3D6 <int>, F3D7 <int>,
      #   F3D8 <int>, F3D9 <int>, …
…
