example.utf8.md
…
The first step in any analysis is getting your data into R. This can be difficult for taxonomic data since it has a hierarchical component (i.e., the taxonomic tree). Metacoder has functions for parsing specific file formats used in metagenomics research. However, for this demonstration, we will be using a more all-purpose parser from the taxa package meant for tabular data.

Included in metacoder is an example dataset that is a subset of the Human Microbiome Project data. This dataset has two parts:

An abundance matrix called hmp_otus, with samples in columns and Operational Taxonomic Units (OTUs) in rows

A sample data table called hmp_samples, with samples as rows and columns of information describing the samples (e.g., gender)

This is a typical way for this kind of data to be formatted and is the preferred way for packages like metacoder and taxa. Lets take a look at the dataset we will use in this example:

library(metacoder)
print(hmp_otus)

## # A tibble: 1,000 x 52
##    otu_id lineage `700035949` `700097855` `700100489` `700111314` `700033744` `700109581`
##    <chr>  <chr>         <int>       <int>       <int>       <int>       <int>       <int>
##  1 OTU_9… r__Roo…           0           2           1           0           0           0
##  2 OTU_9… r__Roo…           0           0           0           0           0           0
##  3 OTU_9… r__Roo…           0           1           0           0           0           0
##  4 OTU_9… r__Roo…           8          36          10           5          66          38
##  5 OTU_9… r__Roo…           3          25           0           0           0           1
##  6 OTU_9… r__Roo…          42         277          16          22          85         211
##  7 OTU_9… r__Roo…           4          17          21           1          74          12
##  8 OTU_9… r__Roo…           0           0           0           0           0           0
##  9 OTU_9… r__Roo…           0           0           0           0           0           0
## 10 OTU_9… r__Roo…           0           0           0           0           1           0
## # … with 990 more rows, and 44 more variables: `700111044` <int>, `700101365` <int>,
## #   `700100431` <int>, `700016050` <int>, `700032425` <int>, `700024855` <int>, `700103488` <int>,
## #   `700096869` <int>, `700107379` <int>, `700096422` <int>, …

print(hmp_samples)

## # A tibble: 50 x 3
## # Groups:   body_site, sex [10]
##    sample_id sex    body_site
##    <chr>     <chr>  <chr>    
##  1 700035949 female Nose     
##  2 700097855 female Nose     
##  3 700100489 female Nose     
##  4 700111314 female Nose     
##  5 700033744 female Nose     
##  6 700109581 male   Nose     
##  7 700111044 male   Nose     
##  8 700101365 male   Nose     
##  9 700100431 male   Nose     
## 10 700016050 male   Nose     
## # … with 40 more rows
…
This returns a taxmap object. The taxmap class is designed to store any number of tables, lists, or vectors associated with taxonomic information and facilitate manipulating the data. Here is what that object looks like:

print(obj)

## <Taxmap>
##   174 taxa: ab. Root, ac. Proteobacteria ... gr. Blautia, gs. Clostridium
##   174 edges: NA->ab, ab->ac, ab->ad, ab->ae, ab->af ... dk->gp, cm->gq, cf->gr, cw->gs
##   2 data sets:
##     tax_data:
##       # A tibble: 1,000 x 53
##         taxon_id otu_id lineage `700035949` `700097855` `700100489` `700111314`
##         <chr>    <chr>  <chr>         <int>       <int>       <int>       <int>
##       1 dm       OTU_9… r__Roo…           0           2           1           0
##       2 dn       OTU_9… r__Roo…           0           0           0           0
##       3 do       OTU_9… r__Roo…           0           1           0           0
##       # … with 997 more rows, and 46 more variables: `700033744` <int>,
##       #   `700109581` <int>, `700111044` <int>, `700101365` <int>, `700100431` <int>,
##       #   `700016050` <int>, `700032425` <int>, `700024855` <int>, `700103488` <int>,
##       #   `700096869` <int>, …
##     class_data:
##       # A tibble: 5,922 x 5
##         taxon_id input_index tax_rank tax_name            regex_match           
##         <chr>          <int> <chr>    <chr>               <chr>                 
##       1 ab                 1 r        Root                r__Root               
##       2 ac                 1 p        Proteobacteria      p__Proteobacteria     
##       3 aj                 1 c        Gammaproteobacteria c__Gammaproteobacteria
##       # … with 5,919 more rows
…
## [1] 211

It appears that 211 of 1000 OTUs now have no reads. We can remove those OTUs and their associated taxa with filter_obs from the taxa package:

obj <- filter_obs(obj, target = "tax_data", ! no_reads, drop_taxa = TRUE)
print(obj)

## <Taxmap>
##   174 taxa: ab. Root, ac. Proteobacteria ... gr. Blautia, gs. Clostridium
##   174 edges: NA->ab, ab->ac, ab->ad, ab->ae, ab->af ... dk->gp, cm->gq, cf->gr, cw->gs
##   2 data sets:
##     tax_data:
##       # A tibble: 1,000 x 51
##         taxon_id `700035949` `700097855` `700100489` `700111314` `700033744` `700109581`
##         <chr>          <dbl>       <dbl>       <dbl>       <dbl>       <dbl>       <dbl>
##       1 dm                 0           0           0           0           0           0
##       2 dn                 0           0           0           0           0           0
##       3 do                 0           0           0           0           0           0
##       # … with 997 more rows, and 44 more variables: `700111044` <dbl>,
##       #   `700101365` <dbl>, `700100431` <dbl>, `700016050` <dbl>, `700032425` <dbl>,
##       #   `700024855` <dbl>, `700103488` <dbl>, `700096869` <dbl>, `700107379` <dbl>,
##       #   `700096422` <dbl>, …
##     class_data:
##       # A tibble: 5,922 x 5
##         taxon_id input_index tax_rank tax_name            regex_match           
##         <chr>          <int> <chr>    <chr>               <chr>                 
##       1 ab                 1 r        Root                r__Root               
##       2 ac                 1 p        Proteobacteria      p__Proteobacteria     
##       3 aj                 1 c        Gammaproteobacteria c__Gammaproteobacteria
##       # … with 5,919 more rows
…
obj$data$tax_data <- calc_obs_props(obj, "tax_data")

## No `cols` specified, so using all numeric columns:
##    700035949, 700097855, 700100489, 700111314 ... 700095535, 700102367, 700101358

## Calculating proportions from counts for 50 columns for 1000 observations.

print(obj)

## <Taxmap>
##   174 taxa: ab. Root, ac. Proteobacteria ... gr. Blautia, gs. Clostridium
##   174 edges: NA->ab, ab->ac, ab->ad, ab->ae, ab->af ... dk->gp, cm->gq, cf->gr, cw->gs
##   2 data sets:
##     tax_data:
##       # A tibble: 1,000 x 51
##         taxon_id `700035949` `700097855` `700100489` `700111314` `700033744` `700109581`
##         <chr>          <dbl>       <dbl>       <dbl>       <dbl>       <dbl>       <dbl>
##       1 dm                 0           0           0           0           0           0
##       2 dn                 0           0           0           0           0           0
##       3 do                 0           0           0           0           0           0
##       # … with 997 more rows, and 44 more variables: `700111044` <dbl>,
##       #   `700101365` <dbl>, `700100431` <dbl>, `700016050` <dbl>, `700032425` <dbl>,
##       #   `700024855` <dbl>, `700103488` <dbl>, `700096869` <dbl>, `700107379` <dbl>,
##       #   `700096422` <dbl>, …
##     class_data:
##       # A tibble: 5,922 x 5
##         taxon_id input_index tax_rank tax_name            regex_match           
##         <chr>          <int> <chr>    <chr>               <chr>                 
##       1 ab                 1 r        Root                r__Root               
##       2 ac                 1 p        Proteobacteria      p__Proteobacteria     
##       3 aj                 1 c        Gammaproteobacteria c__Gammaproteobacteria
##       # … with 5,919 more rows
…
obj$data$tax_abund <- calc_taxon_abund(obj, "tax_data",
                                       cols = hmp_samples$sample_id)

## Summing per-taxon counts from 50 columns for 174 taxa

Note that there is now an additional table called tax_abund with one row per taxon. The name of the table is arbitrary; we could have called it anything.

print(obj)

## <Taxmap>
##   174 taxa: ab. Root, ac. Proteobacteria ... gr. Blautia, gs. Clostridium
##   174 edges: NA->ab, ab->ac, ab->ad, ab->ae, ab->af ... dk->gp, cm->gq, cf->gr, cw->gs
##   3 data sets:
##     tax_data:
##       # A tibble: 1,000 x 51
##         taxon_id `700035949` `700097855` `700100489` `700111314` `700033744` `700109581`
##         <chr>          <dbl>       <dbl>       <dbl>       <dbl>       <dbl>       <dbl>
##       1 dm                 0           0           0           0           0           0
##       2 dn                 0           0           0           0           0           0
##       3 do                 0           0           0           0           0           0
##       # … with 997 more rows, and 44 more variables: `700111044` <dbl>,
##       #   `700101365` <dbl>, `700100431` <dbl>, `700016050` <dbl>, `700032425` <dbl>,
##       #   `700024855` <dbl>, `700103488` <dbl>, `700096869` <dbl>, `700107379` <dbl>,
##       #   `700096422` <dbl>, …
##     class_data:
##       # A tibble: 5,922 x 5
##         taxon_id input_index tax_rank tax_name            regex_match           
##         <chr>          <int> <chr>    <chr>               <chr>                 
##       1 ab                 1 r        Root                r__Root               
##       2 ac                 1 p        Proteobacteria      p__Proteobacteria     
##       3 aj                 1 c        Gammaproteobacteria c__Gammaproteobacteria
##       # … with 5,919 more rows
##     tax_abund:
##       # A tibble: 174 x 51
##         taxon_id `700035949` `700097855` `700100489` `700111314` `700033744` `700109581`
##         <chr>          <dbl>       <dbl>       <dbl>       <dbl>       <dbl>       <dbl>
##       1 ab             1         1                 1      1            1         1      
##       2 ac             0.206     0.0262            0      0.252        0.225     0.00187
##       3 ad             0         0.00269           0      0.0417       0         0      
##       # … with 171 more rows, and 44 more variables: `700111044` <dbl>,
##       #   `700101365` <dbl>, `700100431` <dbl>, `700016050` <dbl>, `700032425` <dbl>,
##       #   `700024855` <dbl>, `700103488` <dbl>, `700096869` <dbl>, `700107379` <dbl>,
##       #   `700096422` <dbl>, …
…
We can also easily calculate the number of samples that have reads for each taxon:

obj$data$tax_occ <- calc_n_samples(obj, "tax_abund", groups = hmp_samples$body_site, cols = hmp_samples$sample_id)

## Calculating number of samples with a value greater than 0 for 50 columns in 5 groups for 174 observations

print(obj)

## <Taxmap>
##   174 taxa: ab. Root, ac. Proteobacteria ... gr. Blautia, gs. Clostridium
##   174 edges: NA->ab, ab->ac, ab->ad, ab->ae, ab->af ... dk->gp, cm->gq, cf->gr, cw->gs
##   4 data sets:
##     tax_data:
##       # A tibble: 1,000 x 51
##         taxon_id `700035949` `700097855` `700100489` `700111314` `700033744` `700109581`
##         <chr>          <dbl>       <dbl>       <dbl>       <dbl>       <dbl>       <dbl>
##       1 dm                 0           0           0           0           0           0
##       2 dn                 0           0           0           0           0           0
##       3 do                 0           0           0           0           0           0
##       # … with 997 more rows, and 44 more variables: `700111044` <dbl>,
##       #   `700101365` <dbl>, `700100431` <dbl>, `700016050` <dbl>, `700032425` <dbl>,
##       #   `700024855` <dbl>, `700103488` <dbl>, `700096869` <dbl>, `700107379` <dbl>,
##       #   `700096422` <dbl>, …
##     class_data:
##       # A tibble: 5,922 x 5
##         taxon_id input_index tax_rank tax_name            regex_match           
##         <chr>          <int> <chr>    <chr>               <chr>                 
##       1 ab                 1 r        Root                r__Root               
##       2 ac                 1 p        Proteobacteria      p__Proteobacteria     
##       3 aj                 1 c        Gammaproteobacteria c__Gammaproteobacteria
##       # … with 5,919 more rows
##     tax_abund:
##       # A tibble: 174 x 51
##         taxon_id `700035949` `700097855` `700100489` `700111314` `700033744` `700109581`
##         <chr>          <dbl>       <dbl>       <dbl>       <dbl>       <dbl>       <dbl>
##       1 ab             1         1                 1      1            1         1      
##       2 ac             0.206     0.0262            0      0.252        0.225     0.00187
##       3 ad             0         0.00269           0      0.0417       0         0      
##       # … with 171 more rows, and 44 more variables: `700111044` <dbl>,
##       #   `700101365` <dbl>, `700100431` <dbl>, `700016050` <dbl>, `700032425` <dbl>,
##       #   `700024855` <dbl>, `700103488` <dbl>, `700096869` <dbl>, `700107379` <dbl>,
##       #   `700096422` <dbl>, …
##     tax_occ:
##       # A tibble: 174 x 6
##         taxon_id  Nose Saliva  Skin Stool Throat
##         <chr>    <int>  <int> <int> <int>  <int>
##       1 ab          10     10    10    10     10
##       2 ac           8     10     9     2     10
##       3 ad           5     10     8    10     10
##       # … with 171 more rows
…
This tells us that samples from the saliva and skin are significantly different from each other, but not significantly different from anything else.

Comparing two treatments/groups

Usually we are interested in how groups of samples compare. For example, we might want to know which taxa differ between the nose and throat, or between men and women. The function compare_groups facilitates these comparisons:

obj$data$diff_table <- compare_groups(obj,
                                      dataset = "tax_abund",
                                      cols = hmp_samples$sample_id, # What columns of sample data to use
                                      groups = hmp_samples$sex) # What category each sample is assigned to
print(obj$data$diff_table)

## # A tibble: 174 x 7
##    taxon_id treatment_1 treatment_2 log2_median_ratio median_diff mean_diff wilcox_p_value
##    <chr>    <chr>       <chr>                   <dbl>       <dbl>     <dbl>          <dbl>
##  1 ab       female      male                    0          0        0              NaN    
##  2 ac       female      male                    0.380      0.0229   0.0379           0.470
##  3 ad       female      male                   -0.434     -0.0449  -0.0199           0.907
##  4 ae       female      male                   -1.68      -0.0475  -0.0753           0.335
##  5 af       female      male                    0.649      0.116    0.0614           0.386
##  6 ag       female      male                    0          0       -0.00275          0.732
##  7 ah       female      male                    0          0       -0.00140          0.602
##  8 ai       female      male                    0          0        0              NaN    
##  9 aj       female      male                    1.24       0.0162  -0.0129           0.680
## 10 ak       female      male                    0          0        0.00121          0.416
## # … with 164 more rows
…
There is no need to graph this, but if there still were some significant differences, we could set any difference that is not significant to zero and repeat the last heat_tree command doing something like:

obj$data$diff_table$log2_median_ratio[obj$data$diff_table$wilcox_p_value > 0.05] <- 0

Comparing any number of treatments/groups

A single differential heat tree can compare two treatments (e.g. male and female), but what if you have more? Then we can make a matrix of heat trees, one for each pairwise comparison of treatments like so:

obj$data$diff_table <- compare_groups(obj, dataset = "tax_abund",
                                      cols = hmp_samples$sample_id, # What columns of sample data to use
                                      groups = hmp_samples$body_site) # What category each sample is assigned to
print(obj$data$diff_table)

## # A tibble: 1,740 x 7
##    taxon_id treatment_1 treatment_2 log2_median_ratio median_diff mean_diff wilcox_p_value
##    <chr>    <chr>       <chr>                   <dbl>       <dbl>     <dbl>          <dbl>
##  1 ab       Nose        Saliva                   0         0         0         NaN        
##  2 ac       Nose        Saliva                  -2.62     -0.167    -0.128       0.0172   
##  3 ad       Nose        Saliva                  -7.68     -0.274    -0.265       0.000163 
##  4 ae       Nose        Saliva                   5.36      0.616     0.595       0.0000108
##  5 af       Nose        Saliva                  -1.23     -0.260    -0.159       0.0433   
##  6 ag       Nose        Saliva                -Inf        -0.0228   -0.0436      0.0000874
##  7 ah       Nose        Saliva                   0         0         0         NaN        
##  8 ai       Nose        Saliva                   0         0         0         NaN        
##  9 aj       Nose        Saliva                  -3.83     -0.103    -0.0803      0.00707  
## 10 ak       Nose        Saliva                -Inf        -0.0174   -0.0174      0.00156  
## # … with 1,730 more rows
…
