…
## Summing per-taxon counts from 50 columns in 2 groups for 174 taxa

# Add taxon name to tax_abund to see filtering effects easier
x$data$tax_abund <- x$data$tax_abund %>%
  mutate(taxon = taxon_names(x)) %>%
  select(taxon_id, taxon, everything())

x

## <Taxmap>
##   174 taxa: ab. Root, ac. Proteobacteria ... gr. Blautia, gs. Clostridium
##   174 edges: NA->ab, ab->ac, ab->ad, ab->ae, ab->af ... dk->gp, cm->gq, cf->gr, cw->gs
##   3 data sets:
##     tax_data:
##       # A tibble: 1,000 x 53
##         taxon_id otu_id lineage `700035949` `700097855` `700100489` `700111314`
##         <chr>    <chr>  <chr>         <int>       <int>       <int>       <int>
##       1 dm       OTU_9… r__Roo…           0           2           1           0
##       2 dn       OTU_9… r__Roo…           0           0           0           0
##       3 do       OTU_9… r__Roo…           0           1           0           0
##       # ... with 997 more rows, and 46 more variables: `700033744` <int>,
##       #   `700109581` <int>, `700111044` <int>, `700101365` <int>, `700100431` <int>,
##       #   `700016050` <int>, `700032425` <int>, `700024855` <int>, `700103488` <int>,
##       #   `700096869` <int>, …
##     class_data:
##       # A tibble: 5,922 x 5
##         taxon_id input_index tax_rank tax_name            regex_match           
##         <chr>          <int> <chr>    <chr>               <chr>                 
##       1 ab                 1 r        Root                r__Root               
##       2 ac                 1 p        Proteobacteria      p__Proteobacteria     
##       3 aj                 1 c        Gammaproteobacteria c__Gammaproteobacteria
##       # ... with 5,919 more rows
##     tax_abund:
##       # A tibble: 174 x 4
##         taxon_id taxon          female  male
##         <chr>    <chr>           <dbl> <dbl>
##       1 ab       Root            62402 62677
##       2 ac       Proteobacteria   9140  6727
##       3 ad       Bacteroidetes   16732 12241
##       # ... with 171 more rows
##   0 functions:

Say I want to subset “tax_abund” to just values for genera. Typically, people try this first:

filter_taxa(x, taxon_ranks == "g")

## <Taxmap>
##   85 taxa: dm. Haemophilus, dn. Capnocytophaga ... gr. Blautia, gs. Clostridium
##   85 edges: NA->dm, NA->dn, NA->do, NA->dp, NA->dq ... NA->gp, NA->gq, NA->gr, NA->gs
##   3 data sets:
##     tax_data:
##       # A tibble: 939 x 53
##         taxon_id otu_id lineage `700035949` `700097855` `700100489` `700111314`
##         <chr>    <chr>  <chr>         <int>       <int>       <int>       <int>
##       1 dm       OTU_9… r__Roo…           0           2           1           0
##       2 dn       OTU_9… r__Roo…           0           0           0           0
##       3 do       OTU_9… r__Roo…           0           1           0           0
##       # ... with 936 more rows, and 46 more variables: `700033744` <int>,
##       #   `700109581` <int>, `700111044` <int>, `700101365` <int>, `700100431` <int>,
##       #   `700016050` <int>, `700032425` <int>, `700024855` <int>, `700103488` <int>,
##       #   `700096869` <int>, …
##     class_data:
##       # A tibble: 939 x 5
##         taxon_id input_index tax_rank tax_name       regex_match      
##         <chr>          <int> <chr>    <chr>          <chr>            
##       1 dm                 1 g        Haemophilus    g__Haemophilus   
##       2 dn                 2 g        Capnocytophaga g__Capnocytophaga
##       3 do                 3 g        Porphyromonas  g__Porphyromonas 
##       # ... with 936 more rows
##     tax_abund:
##       # A tibble: 85 x 4
##         taxon_id taxon          female  male
##         <chr>    <chr>           <dbl> <dbl>
##       1 dm       Haemophilus      2388  1631
##       2 dn       Capnocytophaga    410   320
##       3 do       Porphyromonas    3223  1809
##       # ... with 82 more rows
##   0 functions:

That will ruin you taxonomy since all the other taxa got filtered out, but as a side effect, it does filter that table as intended. You can use get_dataset() to pull out the table without saving the resulting bad taxonomy:

filter_taxa(x, taxon_ranks == "g") %>%
  get_dataset("tax_abund")

## # A tibble: 85 x 4
##    taxon_id taxon             female  male
##    <chr>    <chr>              <dbl> <dbl>
##  1 dm       Haemophilus         2388  1631
##  2 dn       Capnocytophaga       410   320
##  3 do       Porphyromonas       3223  1809
##  4 dp       Propionibacterium   9515 11414
##  5 dq       Neisseria           3958  1568
##  6 dr       Staphylococcus      3358  5492
##  7 ds       Bacteroides         9038  4612
##  8 dt       Selenomonas         1262   238
##  9 du       Alistipes            803   766
## 10 dv       Lautropia            139   155
## # ... with 75 more rows

You might be tempted to use filter_obs, since you are trying to filter a specific table:

filter_obs(x, "tax_abund", taxon_ranks == "g")

## <Taxmap>
##   174 taxa: ab. Root, ac. Proteobacteria ... gr. Blautia, gs. Clostridium
##   174 edges: NA->ab, ab->ac, ab->ad, ab->ae, ab->af ... dk->gp, cm->gq, cf->gr, cw->gs
##   3 data sets:
##     tax_data:
##       # A tibble: 1,000 x 53
##         taxon_id otu_id lineage `700035949` `700097855` `700100489` `700111314`
##         <chr>    <chr>  <chr>         <int>       <int>       <int>       <int>
##       1 dm       OTU_9… r__Roo…           0           2           1           0
##       2 dn       OTU_9… r__Roo…           0           0           0           0
##       3 do       OTU_9… r__Roo…           0           1           0           0
##       # ... with 997 more rows, and 46 more variables: `700033744` <int>,
##       #   `700109581` <int>, `700111044` <int>, `700101365` <int>, `700100431` <int>,
##       #   `700016050` <int>, `700032425` <int>, `700024855` <int>, `700103488` <int>,
##       #   `700096869` <int>, …
##     class_data:
##       # A tibble: 5,922 x 5
##         taxon_id input_index tax_rank tax_name            regex_match           
##         <chr>          <int> <chr>    <chr>               <chr>                 
##       1 ab                 1 r        Root                r__Root               
##       2 ac                 1 p        Proteobacteria      p__Proteobacteria     
##       3 aj                 1 c        Gammaproteobacteria c__Gammaproteobacteria
##       # ... with 5,919 more rows
##     tax_abund:
##       # A tibble: 85 x 4
##         taxon_id taxon          female  male
##         <chr>    <chr>           <dbl> <dbl>
##       1 dm       Haemophilus      2388  1631
##       2 dn       Capnocytophaga    410   320
##       3 do       Porphyromonas    3223  1809
##       # ... with 82 more rows
…
## Error: All logical filtering criteria must be the same length as the data sets filtered.

This happens because the taxonomy was filtered, so taxon_ranks changed, but rows were not removed from “tax_abund” since rows of deleted taxa were automatically reassigned to the deleted taxa’s supertaxa. This is desirable for data like the OTU table (you don’t lose OTUs because a taxon is filtered), but makes what we are trying to do harder. You can disable this behavior like so:

x %>%
  filter_taxa(n_obs > 10, reassign_obs = FALSE) %>%
  filter_obs("tax_abund", taxon_ranks == "g")

## <Taxmap>
##   70 taxa: ab. Root, ac. Proteobacteria ... ev. Oscillospira, fb. Parabacteroides
##   70 edges: NA->ab, ab->ac, ab->ad, ab->ae, ab->af ... cn->ep, cn->es, cn->ev, bs->fb
##   3 data sets:
##     tax_data:
##       # A tibble: 844 x 53
##         taxon_id otu_id lineage `700035949` `700097855` `700100489` `700111314`
##         <chr>    <chr>  <chr>         <int>       <int>       <int>       <int>
##       1 dm       OTU_9… r__Roo…           0           2           1           0
##       2 dn       OTU_9… r__Roo…           0           0           0           0
##       3 do       OTU_9… r__Roo…           0           1           0           0
##       # ... with 841 more rows, and 46 more variables: `700033744` <int>,
##       #   `700109581` <int>, `700111044` <int>, `700101365` <int>, `700100431` <int>,
##       #   `700016050` <int>, `700032425` <int>, `700024855` <int>, `700103488` <int>,
##       #   `700096869` <int>, …
##     class_data:
##       # A tibble: 5,674 x 5
##         taxon_id input_index tax_rank tax_name            regex_match           
##         <chr>          <int> <chr>    <chr>               <chr>                 
##       1 ab                 1 r        Root                r__Root               
##       2 ac                 1 p        Proteobacteria      p__Proteobacteria     
##       3 aj                 1 c        Gammaproteobacteria c__Gammaproteobacteria
##       # ... with 5,671 more rows
##     tax_abund:
##       # A tibble: 21 x 4
##         taxon_id taxon          female  male
##         <chr>    <chr>           <dbl> <dbl>
##       1 dm       Haemophilus      2388  1631
##       2 dn       Capnocytophaga    410   320
##       3 do       Porphyromonas    3223  1809
##       # ... with 18 more rows
##   0 functions:

This worked, but we also filtered the OTU table, which might be not be what we wanted to do. We can instead do the following to make that option apply to just “tax_abund”:

x %>%
  filter_taxa(n_obs > 10, reassign_obs = c(tax_abund = FALSE)) %>%
  filter_obs("tax_abund", taxon_ranks == "g")

## <Taxmap>
##   70 taxa: ab. Root, ac. Proteobacteria ... ev. Oscillospira, fb. Parabacteroides
##   70 edges: NA->ab, ab->ac, ab->ad, ab->ae, ab->af ... cn->ep, cn->es, cn->ev, bs->fb
##   3 data sets:
##     tax_data:
##       # A tibble: 1,000 x 53
##         taxon_id otu_id lineage `700035949` `700097855` `700100489` `700111314`
##         <chr>    <chr>  <chr>         <int>       <int>       <int>       <int>
##       1 dm       OTU_9… r__Roo…           0           2           1           0
##       2 dn       OTU_9… r__Roo…           0           0           0           0
##       3 do       OTU_9… r__Roo…           0           1           0           0
##       # ... with 997 more rows, and 46 more variables: `700033744` <int>,
##       #   `700109581` <int>, `700111044` <int>, `700101365` <int>, `700100431` <int>,
##       #   `700016050` <int>, `700032425` <int>, `700024855` <int>, `700103488` <int>,
##       #   `700096869` <int>, …
##     class_data:
##       # A tibble: 5,922 x 5
##         taxon_id input_index tax_rank tax_name            regex_match           
##         <chr>          <int> <chr>    <chr>               <chr>                 
##       1 ab                 1 r        Root                r__Root               
##       2 ac                 1 p        Proteobacteria      p__Proteobacteria     
##       3 aj                 1 c        Gammaproteobacteria c__Gammaproteobacteria
##       # ... with 5,919 more rows
##     tax_abund:
##       # A tibble: 21 x 4
##         taxon_id taxon          female  male
##         <chr>    <chr>           <dbl> <dbl>
##       1 dm       Haemophilus      2388  1631
##       2 dn       Capnocytophaga    410   320
##       3 do       Porphyromonas    3223  1809
##       # ... with 18 more rows
…
