Digital PCR with the RDP database
…
## <Taxmap>
##   2614 taxa: aab. Root, aac. Bacteria ... dwn. Rubrobacter, dwo. Sphaerobacter
##   2614 edges: NA->aab, aab->aac, aac->aad, aac->aae ... dkk->dwm, dkn->dwn, dkw->dwo
##   2 data sets:
##     tax_data:
##       # A tibble: 3,070,243 x 2
##         taxon_id input                                                                    
##         <chr>    <chr>                                                                    
##       1 dlq      "\tLineage=Root;rootrank;Bacteria;domain;\"Actinobacteria\";phylum;Actin…
##       2 dlq      "\tLineage=Root;rootrank;Bacteria;domain;\"Actinobacteria\";phylum;Actin…
##       3 dlq      "\tLineage=Root;rootrank;Bacteria;domain;\"Actinobacteria\";phylum;Actin…
##       # … with 3,070,240 more rows
…
## <Taxmap>
##   667 taxa: aac. Bacteria, aad. "Actinobacteria" ... azs. Nitrospinaceae
##   667 edges: NA->aac, aac->aad, aac->aae, aac->aaf ... anl->azq, anm->azr, ann->azs
##   2 data sets:
##     tax_data:
##       # A tibble: 3,070,243 x 2
##         taxon_id input                                                                    
##         <chr>    <chr>                                                                    
##       1 ano      "\tLineage=Root;rootrank;Bacteria;domain;\"Actinobacteria\";phylum;Actin…
##       2 ano      "\tLineage=Root;rootrank;Bacteria;domain;\"Actinobacteria\";phylum;Actin…
##       3 ano      "\tLineage=Root;rootrank;Bacteria;domain;\"Actinobacteria\";phylum;Actin…
##       # … with 3,070,240 more rows
…
Remove chloroplast sequences

These are not bacterial and will bias the digital PCR results. Note that the invert option makes it so taxa are included that did not pass the filter. This is different than simply using name != "Chloroplast", subtaxa = TRUE since the effects of invert are applied after those of subtaxa.

rdp <- filter_taxa(rdp, taxon_names == "Cyanobacteria/Chloroplast", subtaxa = TRUE, invert = TRUE)
print(rdp)

## <Taxmap>
##   629 taxa: aac. Bacteria, aad. "Actinobacteria" ... azs. Nitrospinaceae
##   629 edges: NA->aac, aac->aad, aac->aae, aac->aaf ... amx->ayv, anm->azr, ann->azs
##   2 data sets:
##     tax_data:
##       # A tibble: 3,070,243 x 2
##         taxon_id input                                                                    
##         <chr>    <chr>                                                                    
##       1 ano      "\tLineage=Root;rootrank;Bacteria;domain;\"Actinobacteria\";phylum;Actin…
##       2 ano      "\tLineage=Root;rootrank;Bacteria;domain;\"Actinobacteria\";phylum;Actin…
##       3 ano      "\tLineage=Root;rootrank;Bacteria;domain;\"Actinobacteria\";phylum;Actin…
##       # … with 3,070,240 more rows
…
Before doing the digital PCR, I will filter for only full length sequences, since shorter sequences might not have a primer binding site and the digital PCR would fail, not because of an inability of a real primer to bind to real DNA, but because of missing sequence information in the database. Ideally, this kind of filtering for full length sequences would involve something like a multiple sequences alignment so we don’t remove sequences that are actually full length, but just happen to be shorter than the cutoff of 1200 naturally. However, this method is easy and should work OK.

if (! is.null(min_seq_length)) {
  long_enough <- which(vapply(rdp$data$sequence, length, numeric(1)) >= min_seq_length)
  rdp <- filter_obs(rdp, "sequence", long_enough)
  rdp <- filter_obs(rdp, "tax_data", long_enough, drop_taxa = TRUE)
}
print(rdp)

## <Taxmap>
##   619 taxa: aac. Bacteria, aad. "Actinobacteria" ... azs. Nitrospinaceae
##   619 edges: NA->aac, aac->aad, aac->aae, aac->aaf ... amx->ayv, anm->azr, ann->azs
##   2 data sets:
##     tax_data:
##       # A tibble: 1,516,302 x 2
##         taxon_id input                                                                    
##         <chr>    <chr>                                                                    
##       1 ano      "\tLineage=Root;rootrank;Bacteria;domain;\"Actinobacteria\";phylum;Actin…
##       2 ano      "\tLineage=Root;rootrank;Bacteria;domain;\"Actinobacteria\";phylum;Actin…
##       3 ano      "\tLineage=Root;rootrank;Bacteria;domain;\"Actinobacteria\";phylum;Actin…
##       # … with 1,516,299 more rows
…
