Graphing voting geography
…
print(data)

## # A tibble: 24,611 x 8
##    state   state_abbreviation county   fips party    candidate       votes fraction_votes
##    <chr>   <chr>              <chr>   <dbl> <chr>    <chr>           <dbl>          <dbl>
##  1 Alabama AL                 Autauga  1001 Democrat Bernie Sanders    544          0.182
##  2 Alabama AL                 Autauga  1001 Democrat Hillary Clinton  2387          0.8  
##  3 Alabama AL                 Baldwin  1003 Democrat Bernie Sanders   2694          0.329
##  4 Alabama AL                 Baldwin  1003 Democrat Hillary Clinton  5290          0.647
##  5 Alabama AL                 Barbour  1005 Democrat Bernie Sanders    222          0.078
##  6 Alabama AL                 Barbour  1005 Democrat Hillary Clinton  2567          0.906
##  7 Alabama AL                 Bibb     1007 Democrat Bernie Sanders    246          0.197
##  8 Alabama AL                 Bibb     1007 Democrat Hillary Clinton   942          0.755
##  9 Alabama AL                 Blount   1009 Democrat Bernie Sanders    395          0.386
## 10 Alabama AL                 Blount   1009 Democrat Hillary Clinton   564          0.551
## # … with 24,601 more rows
…
regions <- stack(list("Northeast" = c("New England", "Mid-Atlantic"),
                      "Midwest" = c("NE Central", "NW Central"),
                      "South" = c("South Atlantic", "SE Central", "SW Central"),
                      "West" = c("Mountain", "Pacific")))
data$region <- as.character(regions$ind[match(data$division, regions$values)])

data$country <- "USA"

print(data)

## # A tibble: 24,611 x 11
##    state  state_abbreviat… county  fips party candidate votes fraction_votes division region country
##    <chr>  <chr>            <chr>  <dbl> <chr> <chr>     <dbl>          <dbl> <chr>    <chr>  <chr>  
##  1 Alaba… AL               Autau…  1001 Demo… Bernie S…   544          0.182 SE Cent… South  USA    
##  2 Alaba… AL               Autau…  1001 Demo… Hillary …  2387          0.8   SE Cent… South  USA    
##  3 Alaba… AL               Baldw…  1003 Demo… Bernie S…  2694          0.329 SE Cent… South  USA    
##  4 Alaba… AL               Baldw…  1003 Demo… Hillary …  5290          0.647 SE Cent… South  USA    
##  5 Alaba… AL               Barbo…  1005 Demo… Bernie S…   222          0.078 SE Cent… South  USA    
##  6 Alaba… AL               Barbo…  1005 Demo… Hillary …  2567          0.906 SE Cent… South  USA    
##  7 Alaba… AL               Bibb    1007 Demo… Bernie S…   246          0.197 SE Cent… South  USA    
##  8 Alaba… AL               Bibb    1007 Demo… Hillary …   942          0.755 SE Cent… South  USA    
##  9 Alaba… AL               Blount  1009 Demo… Bernie S…   395          0.386 SE Cent… South  USA    
## 10 Alaba… AL               Blount  1009 Demo… Hillary …   564          0.551 SE Cent… South  USA    
## # … with 24,601 more rows

Create and parse classifications

The code below creates a single column in the data set that contains all of the levels of the geographic hierarchy for each location. It is then parsed using parse_taxonomy_table so that the other columns are preserved in the taxmap object.

library(metacoder)
voting_data <- parse_tax_data(data, class_cols = c("country", "region", "division", "state", "county"))
print(voting_data)

## <Taxmap>
##   4279 taxa: aab. USA, aac. South ... gio. Teton-Sublette, gip. Uinta-Lincoln
##   4279 edges: NA->aab, aab->aac, aab->aad, aab->aae ... acl->gin, acl->gio, acl->gip
##   1 data sets:
##     tax_data:
##       # A tibble: 24,611 x 12
##         taxon_id state state_abbreviat… county  fips party candidate votes fraction_votes
##         <chr>    <chr> <chr>            <chr>  <dbl> <chr> <chr>     <dbl>          <dbl>
##       1 acm      Alab… AL               Autau…  1001 Demo… Bernie S…   544          0.182
##       2 acm      Alab… AL               Autau…  1001 Demo… Hillary …  2387          0.8  
##       3 acn      Alab… AL               Baldw…  1003 Demo… Bernie S…  2694          0.329
##       # … with 24,608 more rows, and 3 more variables: division <chr>, region <chr>,
##       #   country <chr>
…
