Making the flowchart
…
AB294171_S001198039 Root;Bacteria;Firmicutes;Bacilli;Lactobacillales;Carnobacteriaceae;Alkalibacterium

data <- extract_taxonomy(seqs, regex = "^(.*)\\t(.*)",
                         key = c(id = "obs_info", "class"),
                         class_sep = ";")
print(data, max_rows = 3)

`taxmap` object with data for 2794 taxa and 10650 observations:

--------------------- taxa ---------------------
1, 2, 3, 4 ... 2791, 2792, 2793, 2794

------------------ taxon_data ------------------
# A tibble: 2,794 x 3
  taxon_ids supertaxon_ids     name
      <chr>          <chr>    <chr>
1         1           <NA>     Root
2         2              1  Archaea
3         3              1 Bacteria
# ... with 2,791 more rows
…
`taxmap` object with data for 379 taxa and 5000 observations:

--------------------- taxa ---------------------
3, 184, 302 ... 1553, 1154, 2008, 1997

------------------ taxon_data ------------------
# A tibble: 379 x 4
  taxon_ids supertaxon_ids             name seq_count
      <chr>          <chr>            <chr>     <dbl>
1         3           <NA>         Bacteria     10240
2       184              3 "Actinobacteria"      2382
3       302            184   Actinobacteria      2381
# ... with 376 more rows

------------------- obs_data -------------------
# A tibble: 5,000 x 14
  obs_taxon_ids                  id
          <chr>               <chr>
1          1997 AF078754_S000428510
2           797 JN561788_S002918430
3          2449 AJ010486_S000134034
# ... with 4,997 more rows, and 12 more variables:
#   sequence <chr>, pair_name <chr>, amplimer <dbl>,
#   length <dbl>, f_primer <chr>, f_index <dbl>,
#   f_mismatch <dbl>, r_primer <chr>, r_index <dbl>,
#   r_mismatch <dbl>, amplicon <chr>, amplified <lgl>
…
