Human microbiome example
…
## 
## [36m──[39m [1m[1mColumn specification[1m[22m [36m────────────────────────────────────────────────────────────────────────────[39m
## cols(
##   .default = col_double(),
##   `#OTU ID` = [31mcol_character()[39m,
##   `Consensus Lineage` = [31mcol_character()[39m
## )
## [36mℹ[39m Use [38;5;235m[48;5;253m[38;5;235m[48;5;253m`spec()`[48;5;253m[38;5;235m[49m[39m for the full column specifications.

colnames(otu_data)[1] <- "otu_id" # make column name more R friendly
print(otu_data)

## # A tibble: 45,383 x 4,790
##    otu_id `700114607` `700114380` `700114716` `700114798` `700114710` `700114614` `700114755`
##    <chr>        <dbl>       <dbl>       <dbl>       <dbl>       <dbl>       <dbl>       <dbl>
##  1 OTU_9…           0           0           0           0           0           0           0
##  2 OTU_9…           0           0           0           0           0           0           0
##  3 OTU_9…           0           0           0           0           0           0           0
##  4 OTU_9…           0           0           0           0           0           0           0
##  5 OTU_9…           0           0           0           0           0           0           0
##  6 OTU_9…           0           0           0           0           0           0           0
##  7 OTU_9…           0           0           0           0           0           0           0
##  8 OTU_9…           0           0           0           0           0           0           0
##  9 OTU_9…           0           0           0           0           0           0           0
## 10 OTU_9…           0           1           5           0           0           0           0
## # … with 45,373 more rows, and 4,782 more variables: `700114715` <dbl>, `700114706` <dbl>,
## #   `700114613` <dbl>, `700114803` <dbl>, `700114714` <dbl>, `700114482` <dbl>, `700114439` <dbl>,
## #   `700114658` <dbl>, `700114387` <dbl>, `700114441` <dbl>, …
…
hmp_data <- parse_tax_data(otu_data,
                           class_cols = "Consensus Lineage",
                           class_regex = "([a-z]{0,1})_{0,2}(.*)$",
                           class_key = c(hmp_rank = "taxon_rank", hmp_tax = "taxon_name"),
                           class_sep = ";")
hmp_data$data$class_data <- NULL # Delete uneeded regex match table
names(hmp_data$data) <- "otu_count" # Rename abundnace matrix to something more understandable
print(hmp_data)

## <Taxmap>
##   985 taxa: aab. Root, aac. Firmicutes, aad. Proteobacteria ... blw. , blx. Dichelobacter
##   985 edges: NA->aab, aab->aac, aab->aad, aab->aae ... akc->blv, aqr->blw, amv->blx
##   1 data sets:
##     otu_count:
##       # A tibble: 45,383 x 4,791
##         taxon_id otu_id `700114607` `700114380` `700114716` `700114798` `700114710`
##         <chr>    <chr>        <dbl>       <dbl>       <dbl>       <dbl>       <dbl>
##       1 aqs      OTU_9…           0           0           0           0           0
##       2 aqt      OTU_9…           0           0           0           0           0
##       3 aqu      OTU_9…           0           0           0           0           0
##       # … with 45,380 more rows, and 4,784 more variables: `700114614` <dbl>,
##       #   `700114755` <dbl>, `700114715` <dbl>, `700114706` <dbl>, `700114613` <dbl>,
##       #   `700114803` <dbl>, `700114714` <dbl>, `700114482` <dbl>, `700114439` <dbl>,
##       #   `700114658` <dbl>, …
##   0 functions:

I will save the information on sample characteristics (e.g. body site) in a seperate table, since it is not directly assocaited with taxonomic information.

sample_data <- read_tsv(mapping_file,
                        col_types = "ccccccccc") # Force all columns to be character
colnames(sample_data) <- c("sample_id", "rsid", "visit_no", "sex", "run_center",
                           "body_site", "mislabeled", "contaminated", "description")
print(sample_data)

## # A tibble: 4,857 x 9
##    sample_id rsid   visit_no sex   run_center body_site   mislabeled contaminated description       
##    <chr>     <chr>  <chr>    <chr> <chr>      <chr>       <chr>      <chr>        <chr>             
##  1 700013549 15801… 1        fema… BCM        Stool       NA         NA           HMP_Human_metagen…
##  2 700014386 15839… 1        male  BCM,BI     Stool       NA         NA           HMP_Human_metagen…
##  3 700014403 15839… 1        male  BCM,BI     Saliva      NA         NA           HMP_Human_metagen…
##  4 700014409 15839… 1        male  BCM,BI     Tongue_dor… NA         NA           HMP_Human_metagen…
##  5 700014412 15839… 1        male  BCM,BI     Hard_palate NA         NA           HMP_Human_metagen…
##  6 700014415 15839… 1        male  BCM,BI     Buccal_muc… NA         NA           HMP_Human_metagen…
##  7 700014418 15839… 1        male  BCM,BI     Attached_K… NA         NA           HMP_Human_metagen…
##  8 700014421 15839… 1        male  BCM,BI     Palatine_T… NA         NA           HMP_Human_metagen…
##  9 700014424 15839… 1        male  BCM,BI     Throat      NA         NA           HMP_Human_metagen…
## 10 700014427 15839… 1        male  BCM,BI     Supragingi… NA         NA           HMP_Human_metagen…
## # … with 4,847 more rows
…
Those might be relevant depending on the research question, but for this analysis I choose to remove them, since they do not mean much to me (you might want to keep such taxa in your ananlysis). We can remove taxa from a taxmap object using the filter_taxa function. I will remove them by removing any taxon whose name is not composed of only letters.

hmp_data <- filter_taxa(hmp_data, grepl(taxon_names, pattern =  "^[a-zA-Z]+$"))
print(hmp_data)

## <Taxmap>
##   703 taxa: aab. Root, aac. Firmicutes ... blv. Planifilum, blx. Dichelobacter
##   703 edges: NA->aab, aab->aac, aab->aad, aab->aae ... adj->blt, akc->blv, amv->blx
##   1 data sets:
##     otu_count:
##       # A tibble: 45,383 x 1,508
##         taxon_id otu_id `700114554` `700114707` `700114442` `700114328` `700114223`
##         <chr>    <chr>        <dbl>       <dbl>       <dbl>       <dbl>       <dbl>
##       1 aqs      OTU_9…           0           0           0           0           0
##       2 aqt      OTU_9…           0           0           0           0           0
##       3 aqu      OTU_9…           0           0           0           0           0
##       # … with 45,380 more rows, and 1,501 more variables: `700111749` <dbl>,
##       #   `700114709` <dbl>, `700108534` <dbl>, `700114005` <dbl>, `700114162` <dbl>,
##       #   `700108165` <dbl>, `700114330` <dbl>, `700105883` <dbl>, `700114750` <dbl>,
##       #   `700114386` <dbl>, …
…
