workshop--07--diversity_stats.knit
…
obj$data$tax_abund <- calc_taxon_abund(obj, "otu_props")

## No `cols` specified, so using all numeric columns:
##    M1981P563, M1977P1709, M1980P502, M1981P606 ... M1955P747, M1978P342, M1955P778

## Summing per-taxon counts from 292 columns for 489 taxa

obj$data$type_abund <- calc_group_mean(obj, "tax_abund",
                                       cols = sample_data$SampleID,
                                       groups = sample_data$Type)

print(obj$data$type_abund)

## # A tibble: 489 × 3
##    taxon_id     leaf    root
##    <chr>       <dbl>   <dbl>
##  1 aad      1        1      
##  2 aaf      0.647    0.456  
##  3 aag      0.103    0.277  
##  4 aah      0.0704   0.0155 
##  5 aai      0.161    0.109  
##  6 aaj      0.00438  0.00437
##  7 aak      0.00134  0.0266 
##  8 aal      0.00109  0.0318 
##  9 aam      0.000665 0.0135 
## 10 aan      0.00571  0.0462 
## # … with 479 more rows
…
obj$data$diff_table <- compare_groups(obj, data = "tax_abund",
                                      cols = sample_data$SampleID,
                                      groups = sample_data$Type)
print(obj$data$diff_table)

## # A tibble: 489 × 7
##    taxon_id treatment_1 treatment_2 log2_median_ratio median_diff  mean_diff wilcox_p_value
##    <chr>    <chr>       <chr>                   <dbl>       <dbl>      <dbl>          <dbl>
##  1 aad      leaf        root                    0         0        0               3.21e- 1
##  2 aaf      leaf        root                    0.420     0.159    0.191           1.66e-17
##  3 aag      leaf        root                   -1.18     -0.137   -0.174           4.06e-43
##  4 aah      leaf        root                    1.83      0.0225   0.0549          8.87e-18
##  5 aai      leaf        root                    0.448     0.0385   0.0519          1.94e- 2
##  6 aaj      leaf        root                   -1.27     -0.00194  0.0000115       3.32e- 9
##  7 aak      leaf        root                   -6.72     -0.0249  -0.0252          1.62e-48
##  8 aal      leaf        root                 -Inf        -0.0293  -0.0307          8.43e-51
##  9 aam      leaf        root                 -Inf        -0.0129  -0.0128          2.63e-50
## 10 aan      leaf        root                   -4.66     -0.0423  -0.0405          1.61e-44
## # … with 479 more rows
…
obj$data$diff_table <- compare_groups(obj, data = "tax_abund",
                                      cols = sample_data$SampleID,
                                      groups = sample_data$Site)
print(obj$data$diff_table)

## # A tibble: 1,467 × 7
##    taxon_id treatment_1 treatment_2 log2_median_ratio median_diff mean_diff wilcox_p_value
##    <chr>    <chr>       <chr>                   <dbl>       <dbl>     <dbl>          <dbl>
##  1 aad      Mah         Jam                    0        0          0              2.70e- 1
##  2 aaf      Mah         Jam                    0.187    0.0621    -0.0937         7.70e- 1
##  3 aag      Mah         Jam                   -0.202   -0.0277    -0.0330         7.74e- 1
##  4 aah      Mah         Jam                    0.785    0.00734    0.00796        1.76e- 1
##  5 aai      Mah         Jam                    0.867    0.0548     0.107          7.29e-14
##  6 aaj      Mah         Jam                   -0.0509  -0.0000907  0.000561       3.79e- 1
##  7 aak      Mah         Jam                   -0.391   -0.00295   -0.00183        7.84e- 1
##  8 aal      Mah         Jam                    0.180    0.00162    0.00564        7.09e- 2
##  9 aam      Mah         Jam                   -0.672   -0.00300   -0.00216        4.15e- 2
## 10 aan      Mah         Jam                    0.0842   0.000995   0.00641        3.20e- 3
## # … with 1,457 more rows
…
