workshop--03--parsing.knit
…
library(readr) # Loads the readr package so we can use `read_tsv`

Tibbles are a type of data.frame with some fancier
printing and more consistent behavior. Click
here to
download the OTU table. Lets read in the raw OTU table first:

otu_data <- read_tsv("otuTable97.txt.bz2") # You might need to change the path to the file
print(otu_data) # You can also enter just `otu_data` to print it

## # A tibble: 47,806 × 1,699
##    OTU_ID M1024P1833 M1551…¹ M1551…² M1551…³ M1551…⁴ M1551…⁵ M1551…⁶ M1551…⁷ M1551…⁸ M1551…⁹ M1551…˟
##     <dbl>      <dbl>   <dbl>   <dbl>   <dbl>   <dbl>   <dbl>   <dbl>   <dbl>   <dbl>   <dbl>   <dbl>
##  1      1          0       0       0       0       0       0       0       0       0       0       0
##  2      2         41      22       4     726  112492       2     413       2       1      65       2
##  3      3         67      65      12   13514       1       4   13314      70    5929   13893   11023
##  4      4       3229   13679    1832     951     113    2496     567    2428    2156     948     647
##  5      5       1200      92    3530    2008       0     183    2087     292    1058    1334     819
##  6      6        219    1980    1200     499       1     781     214    2273     171     427      74
##  7      7        485    5123     755    4080     443    1278    2193     401    5320    2491    2408
##  8      8        840    7079    3760      22       0    2699      22    2870      32      21      35
##  9      9         40      82      91     881       1     449    1121      90    2283     146     941
## 10     10         11      79     277    2879       1       0    6811      14     243    2726     334
## # … with 47,796 more rows, 1,687 more variables: M1551P48 <dbl>, M1551P4 <dbl>, M1551P52 <dbl>,
## #   M1551P3 <dbl>, M1551P15 <dbl>, M1551P31 <dbl>, M1551P75 <dbl>, M1551P88 <dbl>, M1551P47 <dbl>,
## #   M1551P77 <dbl>, …, and abbreviated variable names ¹​M1551P81, ²​M1551P57, ³​M1551P85, ⁴​M1551P28,
## #   ⁵​M1551P29, ⁶​M1551P38, ⁷​M1551P90, ⁸​M1551P71, ⁹​M1551P12, ˟​M1551P84
This is a big data set, with 47,806 rows (OTUs) and 1,699 columns
(1,698 samples and an OTU ID). If your computer cannot load this file,
don’t worry, we will provide a subset later for the rest of the
workshop.

In this data set, the taxonomic classifications for the OTUs are in a
different file. This information could have been included as additional
columns in the OTU table and often is in other data sets. Click
here
to download the taxonomic classifications table.

tax_data <- read_tsv("taxAssignments97.txt")
print(tax_data) # You can also enter `tax_data` to print it

## # A tibble: 47,806 × 8
##    `OTU ID`  taxonomy                                      Kingdom Phylum Class Order Family Confi…¹
##    <chr>     <chr>                                         <chr>   <chr>  <chr> <chr> <chr>    <dbl>
##  1 OTU_1     Unassigned                                    Unassi… Unass… Unas… Unas… Unass…    1   
##  2 OTU_10    Root;k__Bacteria;p__Bacteroidetes;c__Sphingo… Bacter… Bacte… Sphi… Sphi… Sphin…    1   
##  3 OTU_100   Root;k__Bacteria;p__Cyanobacteria;c__Chlorop… Bacter… Cyano… Chlo… Chlo… NA        1   
##  4 OTU_1000  Root;k__Bacteria;p__Actinobacteria;c__Actino… Bacter… Actin… Acti… Acti… Actin…    0.67
##  5 OTU_10000 Unassigned                                    Unassi… Unass… Unas… Unas… Unass…    1   
##  6 OTU_10001 Root;k__Bacteria;p__Chlamydiae;c__Chlamydiia… Bacter… Chlam… Chla… Chla… Parac…    1   
##  7 OTU_10002 Root;k__Bacteria;p__Proteobacteria;c__Alphap… Bacter… Prote… Alph… NA    NA        1   
##  8 OTU_10003 Unassigned                                    Unassi… Unass… Unas… Unas… Unass…    1   
##  9 OTU_10004 Unassigned                                    Unassi… Unass… Unas… Unas… Unass…    1   
## 10 OTU_10005 Root;k__Bacteria;p__Cyanobacteria;c__4C0d-2;… Bacter… Cyano… 4C0d… MLE1… NA        1   
## # … with 47,796 more rows, and abbreviated variable name ¹​Confidence
…
tax_data$`OTU ID` <- sub(tax_data$`OTU ID`, # ` are needed because of the space
                         pattern = "OTU_", replacement = "")
print(tax_data) 

## # A tibble: 47,806 × 8
##    `OTU ID` taxonomy                                       Kingdom Phylum Class Order Family Confi…¹
##    <chr>    <chr>                                          <chr>   <chr>  <chr> <chr> <chr>    <dbl>
##  1 1        Unassigned                                     Unassi… Unass… Unas… Unas… Unass…    1   
##  2 10       Root;k__Bacteria;p__Bacteroidetes;c__Sphingob… Bacter… Bacte… Sphi… Sphi… Sphin…    1   
##  3 100      Root;k__Bacteria;p__Cyanobacteria;c__Chloropl… Bacter… Cyano… Chlo… Chlo… NA        1   
##  4 1000     Root;k__Bacteria;p__Actinobacteria;c__Actinob… Bacter… Actin… Acti… Acti… Actin…    0.67
##  5 10000    Unassigned                                     Unassi… Unass… Unas… Unas… Unass…    1   
##  6 10001    Root;k__Bacteria;p__Chlamydiae;c__Chlamydiia;… Bacter… Chlam… Chla… Chla… Parac…    1   
##  7 10002    Root;k__Bacteria;p__Proteobacteria;c__Alphapr… Bacter… Prote… Alph… NA    NA        1   
##  8 10003    Unassigned                                     Unassi… Unass… Unas… Unas… Unass…    1   
##  9 10004    Unassigned                                     Unassi… Unass… Unas… Unas… Unass…    1   
## 10 10005    Root;k__Bacteria;p__Cyanobacteria;c__4C0d-2;o… Bacter… Cyano… 4C0d… MLE1… NA        1   
## # … with 47,796 more rows, and abbreviated variable name ¹​Confidence

Although we could proceed with the analysis using separate OTU and
taxonomy tables, lets combine them to simplify things. Since the rows
are in different order, we need to combine (aka “join”) them based on
their OTU ID. We will use the dplyr
package for this.

library(dplyr) # Loads the dplyr package so we can use `left_join`
tax_data$`OTU ID` <- as.character(tax_data$`OTU ID`) # Must be same type for join to work
otu_data$OTU_ID <- as.character(otu_data$OTU_ID) # Must be same type for join to work
otu_data <- left_join(otu_data, tax_data,
                      by = c("OTU_ID" = "OTU ID")) # identifies cols with shared IDs
print(otu_data)

## # A tibble: 47,806 × 1,706
##    OTU_ID M1024P1833 M1551…¹ M1551…² M1551…³ M1551…⁴ M1551…⁵ M1551…⁶ M1551…⁷ M1551…⁸ M1551…⁹ M1551…˟
##    <chr>       <dbl>   <dbl>   <dbl>   <dbl>   <dbl>   <dbl>   <dbl>   <dbl>   <dbl>   <dbl>   <dbl>
##  1 1               0       0       0       0       0       0       0       0       0       0       0
##  2 2              41      22       4     726  112492       2     413       2       1      65       2
##  3 3              67      65      12   13514       1       4   13314      70    5929   13893   11023
##  4 4            3229   13679    1832     951     113    2496     567    2428    2156     948     647
##  5 5            1200      92    3530    2008       0     183    2087     292    1058    1334     819
##  6 6             219    1980    1200     499       1     781     214    2273     171     427      74
##  7 7             485    5123     755    4080     443    1278    2193     401    5320    2491    2408
##  8 8             840    7079    3760      22       0    2699      22    2870      32      21      35
##  9 9              40      82      91     881       1     449    1121      90    2283     146     941
## 10 10             11      79     277    2879       1       0    6811      14     243    2726     334
## # … with 47,796 more rows, 1,694 more variables: M1551P48 <dbl>, M1551P4 <dbl>, M1551P52 <dbl>,
## #   M1551P3 <dbl>, M1551P15 <dbl>, M1551P31 <dbl>, M1551P75 <dbl>, M1551P88 <dbl>, M1551P47 <dbl>,
## #   M1551P77 <dbl>, …, and abbreviated variable names ¹​M1551P81, ²​M1551P57, ³​M1551P85, ⁴​M1551P28,
## #   ⁵​M1551P29, ⁶​M1551P38, ⁷​M1551P90, ⁸​M1551P71, ⁹​M1551P12, ˟​M1551P84
…
tail(colnames(otu_data), n = 10) # `tail` returns the last n elements

##  [1] "M1958P1043" "M1691P1526" "M1691P1557" "taxonomy"   "Kingdom"    "Phylum"     "Class"     
##  [8] "Order"      "Family"     "Confidence"

Next, lets load the sample data. Click
here to download the sample
data table.

sample_data <- read_tsv("SMD.txt",
                        col_types = "cccccccccccccccc") # each "c" means a column of "character"
print(sample_data) # You can also enter `sample_data` to print it

## # A tibble: 1,698 × 16
##    SampleID   Name      Plant…¹ Type  Exper…² Cohort Harve…³ Age   Site  Treat…⁴ Line  Genot…⁵ Block
##    <chr>      <chr>     <chr>   <chr> <chr>   <chr>  <chr>   <chr> <chr> <chr>   <chr> <chr>   <chr>
##  1 M1024P1788 R_026.ro… R_026   root  fieldB… 2008   2011    3     LTM   field   26    ril     NA   
##  2 M1024P1791 R_073.ro… R_073   root  fieldB… 2008   2011    3     LTM   field   73    ril     NA   
##  3 M1024P1795 R_088.ro… R_088   root  fieldB… 2009   2011    2     LTM   field   88    ril     NA   
##  4 M1024P1807 R_156.ro… R_156   root  fieldB… 2009   2011    2     LTM   field   156   ril     NA   
##  5 M1955P804  1_A_1.ro… 1_A_1   root  ecoGH   NA     2011    NA    Duke  MAHsoil par1… PAR     b01  
##  6 M1956P837  1_A_12.r… 1_A_12  root  ecoGH   NA     2011    NA    Duke  MAHsoil mah3… MAH     b01  
##  7 M1957P983  1_A_3.ro… 1_A_3   root  ecoGH   NA     2011    NA    Duke  MAHsoil silL… SIL     b01  
##  8 M1956P845  1_A_4.ro… 1_A_4   root  ecoGH   NA     2011    NA    Duke  MAHsoil par1… PAR     b01  
##  9 M1957P987  1_A_7.ro… 1_A_7   root  ecoGH   NA     2011    NA    Duke  MAHsoil par9… PAR     b01  
## 10 M1957P923  1_A_8.ro… 1_A_8   root  ecoGH   NA     2011    NA    Duke  MAHsoil mil5… MIL     b01  
## # … with 1,688 more rows, 3 more variables: oldPlate <chr>, newPlate <chr>, Analysis <chr>, and
## #   abbreviated variable names ¹​Plant_ID, ²​Experiment, ³​Harvested, ⁴​Treatment, ⁵​Genotype
…
If we just consider the ranks to be a part of the taxon name, then
its pretty easy to parse:

library(metacoder)
obj <- parse_tax_data(otu_data,
                      class_cols = "taxonomy", # The column in the input table
                      class_sep = ";") # What each taxon is seperated by
print(obj)

## <Taxmap>
##   1558 taxa: aab. Unassigned, aac. Root ... chx. f__Methanospirillaceae, chy. f__
##   1558 edges: NA->aab, NA->aac, aac->aad, aac->aae ... bel->chw, ays->chx, bem->chy
##   1 data sets:
##     tax_data:
##       # A tibble: 47,806 × 1,707
##         taxon_id OTU_ID M1024P1833 M1551…¹ M1551…² M1551…³ M1551…⁴ M1551…⁵ M1551…⁶ M1551…⁷
##         <chr>    <chr>       <dbl>   <dbl>   <dbl>   <dbl>   <dbl>   <dbl>   <dbl>   <dbl>
##       1 aab      1               0       0       0       0       0       0       0       0
##       2 ben      2              41      22       4     726  112492       2     413       2
##       3 beo      3              67      65      12   13514       1       4   13314      70
##       # … with 47,803 more rows, 1,697 more variables: M1551P71 <dbl>, M1551P12 <dbl>,
##       #   M1551P84 <dbl>, M1551P48 <dbl>, M1551P4 <dbl>, M1551P52 <dbl>, M1551P3 <dbl>,
##       #   M1551P15 <dbl>, M1551P31 <dbl>, M1551P75 <dbl>, …, and abbreviated variable
##       #   names ¹​M1551P81, ²​M1551P57, ³​M1551P85, ⁴​M1551P28, ⁵​M1551P29, ⁶​M1551P38,
##       #   ⁷​M1551P90
##   0 functions:

Above is the print out of a taxmap object. The first
line tells us that the OTUs are assigned to 1,558 unique taxa and lists
their IDs and names. These taxon IDs were generated automatically when
converting to the taxmap format and were not in the
original data set. The second line describes how taxa relate to each
other in the tree. Note how our original data are now inside this
object:

print(obj$data$tax_data)

## # A tibble: 47,806 × 1,707
##    taxon_id OTU_ID M1024P1…¹ M1551…² M1551…³ M1551…⁴ M1551…⁵ M1551…⁶ M1551…⁷ M1551…⁸ M1551…⁹ M1551…˟
##    <chr>    <chr>      <dbl>   <dbl>   <dbl>   <dbl>   <dbl>   <dbl>   <dbl>   <dbl>   <dbl>   <dbl>
##  1 aab      1              0       0       0       0       0       0       0       0       0       0
##  2 ben      2             41      22       4     726  112492       2     413       2       1      65
##  3 beo      3             67      65      12   13514       1       4   13314      70    5929   13893
##  4 ben      4           3229   13679    1832     951     113    2496     567    2428    2156     948
##  5 bep      5           1200      92    3530    2008       0     183    2087     292    1058    1334
##  6 beq      6            219    1980    1200     499       1     781     214    2273     171     427
##  7 ber      7            485    5123     755    4080     443    1278    2193     401    5320    2491
##  8 bes      8            840    7079    3760      22       0    2699      22    2870      32      21
##  9 bet      9             40      82      91     881       1     449    1121      90    2283     146
## 10 beu      10            11      79     277    2879       1       0    6811      14     243    2726
## # … with 47,796 more rows, 1,695 more variables: M1551P84 <dbl>, M1551P48 <dbl>, M1551P4 <dbl>,
## #   M1551P52 <dbl>, M1551P3 <dbl>, M1551P15 <dbl>, M1551P31 <dbl>, M1551P75 <dbl>, M1551P88 <dbl>,
## #   M1551P47 <dbl>, …, and abbreviated variable names ¹​M1024P1833, ²​M1551P81, ³​M1551P57, ⁴​M1551P85,
## #   ⁵​M1551P28, ⁶​M1551P29, ⁷​M1551P38, ⁸​M1551P90, ⁹​M1551P71, ˟​M1551P12
…
obj <- parse_tax_data(otu_data,
                      class_cols = "taxonomy",
                      class_sep = ";",
                      class_regex = "^([a-z]{0,1})_{0,2}(.*)$",
                      class_key = c("tax_rank" = "taxon_rank", "name" = "taxon_name"))
print(obj)

## <Taxmap>
##   1558 taxa: aab. Unassigned, aac. Root ... chx. Methanospirillaceae, chy. 
##   1558 edges: NA->aab, NA->aac, aac->aad, aac->aae ... bel->chw, ays->chx, bem->chy
##   2 data sets:
##     tax_data:
##       # A tibble: 47,806 × 1,707
##         taxon_id OTU_ID M1024P1833 M1551…¹ M1551…² M1551…³ M1551…⁴ M1551…⁵ M1551…⁶ M1551…⁷
##         <chr>    <chr>       <dbl>   <dbl>   <dbl>   <dbl>   <dbl>   <dbl>   <dbl>   <dbl>
##       1 aab      1               0       0       0       0       0       0       0       0
##       2 ben      2              41      22       4     726  112492       2     413       2
##       3 beo      3              67      65      12   13514       1       4   13314      70
##       # … with 47,803 more rows, 1,697 more variables: M1551P71 <dbl>, M1551P12 <dbl>,
##       #   M1551P84 <dbl>, M1551P48 <dbl>, M1551P4 <dbl>, M1551P52 <dbl>, M1551P3 <dbl>,
##       #   M1551P15 <dbl>, M1551P31 <dbl>, M1551P75 <dbl>, …, and abbreviated variable
##       #   names ¹​M1551P81, ²​M1551P57, ³​M1551P85, ⁴​M1551P28, ⁵​M1551P29, ⁶​M1551P38,
##       #   ⁷​M1551P90
##     class_data:
##       # A tibble: 216,417 × 5
##         taxon_id input_index tax_rank name       regex_match
##         <chr>          <int> <chr>    <chr>      <chr>      
##       1 aab                1 ""       Unassigned Unassigned 
##       2 aac                2 ""       Root       Root       
##       3 aad                2 "k"      Bacteria   k__Bacteria
##       # … with 216,414 more rows
…
head(taxon_names(obj))

##              aab              aac              aad              aae              aaf 
##     "Unassigned"           "Root"       "Bacteria"        "Archaea" "Proteobacteria" 
##              aag 
## "Actinobacteria"

Instead, the rank information (and any other capture group content)
is in a separate data set:

obj$data$class_data

## # A tibble: 216,417 × 5
##    taxon_id input_index tax_rank name                regex_match           
##    <chr>          <int> <chr>    <chr>               <chr>                 
##  1 aab                1 ""       Unassigned          Unassigned            
##  2 aac                2 ""       Root                Root                  
##  3 aad                2 "k"      Bacteria            k__Bacteria           
##  4 aaf                2 "p"      Proteobacteria      p__Proteobacteria     
##  5 add                2 "c"      Alphaproteobacteria c__Alphaproteobacteria
##  6 amg                2 "o"      Rickettsiales       o__Rickettsiales      
##  7 ben                2 "f"      mitochondria        f__mitochondria       
##  8 aac                3 ""       Root                Root                  
##  9 aad                3 "k"      Bacteria            k__Bacteria           
## 10 aaf                3 "p"      Proteobacteria      p__Proteobacteria     
## # … with 216,407 more rows
…
obj$data$class_data <- NULL

Lets also rename the “tax_data” table to something more
informative:

names(obj$data) <- "otu_counts"
print(obj)

## <Taxmap>
##   1558 taxa: aab. Unassigned, aac. Root ... chx. Methanospirillaceae, chy. 
##   1558 edges: NA->aab, NA->aac, aac->aad, aac->aae ... bel->chw, ays->chx, bem->chy
##   1 data sets:
##     otu_counts:
##       # A tibble: 47,806 × 1,707
##         taxon_id OTU_ID M1024P1833 M1551…¹ M1551…² M1551…³ M1551…⁴ M1551…⁵ M1551…⁶ M1551…⁷
##         <chr>    <chr>       <dbl>   <dbl>   <dbl>   <dbl>   <dbl>   <dbl>   <dbl>   <dbl>
##       1 aab      1               0       0       0       0       0       0       0       0
##       2 ben      2              41      22       4     726  112492       2     413       2
##       3 beo      3              67      65      12   13514       1       4   13314      70
##       # … with 47,803 more rows, 1,697 more variables: M1551P71 <dbl>, M1551P12 <dbl>,
##       #   M1551P84 <dbl>, M1551P48 <dbl>, M1551P4 <dbl>, M1551P52 <dbl>, M1551P3 <dbl>,
##       #   M1551P15 <dbl>, M1551P31 <dbl>, M1551P75 <dbl>, …, and abbreviated variable
##       #   names ¹​M1551P81, ²​M1551P57, ³​M1551P85, ⁴​M1551P28, ⁵​M1551P29, ⁶​M1551P38,
##       #   ⁷​M1551P90
…
Show solution

lookup_tax_data(my_data, type = "seq_id", column = "ncbi_seq_id", database = "ncbi")

## <Taxmap>
##   33 taxa: 131567. cellular organisms, 2759. Eukaryota ... 9694. Panthera tigris
##   33 edges: NA->131567, 131567->2759, 2759->33154 ... 9688->9689, 9688->9694
##   2 data sets:
##     tax_data:
##       # A tibble: 33 × 4
##         taxon_id ncbi_name          ncbi_rank    ncbi_id
##         <chr>    <chr>              <chr>        <chr>  
##       1 131567   cellular organisms no rank      131567 
##       2 2759     Eukaryota          superkingdom 2759   
##       3 33154    Opisthokonta       clade        33154  
##       # … with 30 more rows
…
Show solution

lookup_tax_data(my_data, type = "taxon_id", column = "itis_taxon_id", database = "itis")

## <Taxmap>
##   22 taxa: 202423. Animalia, 914154. Bilateria ... 183806. Panthera tigris tigris
##   22 edges: NA->202423, 202423->914154 ... 180592->183805, 183805->183806
##   2 data sets:
##     tax_data:
##       # A tibble: 22 × 4
##         taxon_id itis_name     itis_rank    itis_id
##         <chr>    <chr>         <chr>        <chr>  
##       1 202423   Animalia      kingdom      202423 
##       2 914154   Bilateria     subkingdom   914154 
##       3 914156   Deuterostomia infrakingdom 914156 
##       # … with 19 more rows
…
Show solution

extract_tax_data(headers,
                 key = c(my_acc_no = "seq_id", my_class = "info"),
                 regex = "^(.+)::(.+)$")

## <Taxmap>
##   33 taxa: 131567. cellular organisms, 2759. Eukaryota ... 9694. Panthera tigris
##   33 edges: NA->131567, 131567->2759, 2759->33154 ... 9688->9689, 9688->9694
##   2 data sets:
##     tax_data:
##       # A tibble: 33 × 4
##         taxon_id ncbi_name          ncbi_rank    ncbi_id
##         <chr>    <chr>              <chr>        <chr>  
##       1 131567   cellular organisms no rank      131567 
##       2 2759     Eukaryota          superkingdom 2759   
##       3 33154    Opisthokonta       clade        33154  
##       # … with 30 more rows
…
